<?xml version="1.0" encoding="UTF-8"?>
<session version="1.0">
<refactoring accessors="true" comment="Delete element from project &apos;SwiperReader&apos;&#x0A;- Original project: &apos;SwiperReader&apos;&#x0A;- Original element: &apos;SwiperReader/src/collection.viewhelpers&apos;" description="Delete element" element1="/src&lt;collection.viewhelpers" element2="/src&lt;collection" elements="2" flags="589830" id="org.eclipse.jdt.ui.delete" resources="0" stamp="1330714051166" subPackages="false" version="1.0"/>
</session>